# 170 = {

    # # Misc
    # culture = damerian
    # religion = cult_of_the_dame
	# holding = tribal_holding

    # # History
# }

# 171 = {

    # # Misc
    # culture = damerian
    # religion = cult_of_the_dame
	# holding = tribal_holding

    # # History
# }

# 172 = {

    # # Misc
    # culture = damerian
    # religion = cult_of_the_dame
	# holding = tribal_holding

    # # History
# }

# 173 = {

    # # Misc
    # culture = damerian
    # religion = cult_of_the_dame
	# holding = tribal_holding

    # # History
# }

# 174 = {

    # # Misc
    # culture = damerian
    # religion = cult_of_the_dame
	# holding = tribal_holding

    # # History
# }

# 181 = {

    # # Misc
    # culture = damerian
    # religion = cult_of_the_dame
	# holding = tribal_holding

    # # History
# }